0.0226991418468,0.724276527331
0.0259446902293,0.729903536977
0.0287084314699,0.738745980707
0.0243576424364,0.735530546624
0.026822852209,0.721061093248
0.0252620243672,0.725080385852
0.0149574491863,0.745980707395
0.0325116044279,0.740353697749
0.024089156502,0.720257234727
0.0212947514944,0.716237942122
0.0224107955348,0.742765273312
0.020800355446,0.725884244373
0.0351547234175,0.713826366559
0.0288412173262,0.745176848875
0.0245802429905,0.736334405145
0.0336300959064,0.735530546624
0.014060964334,0.719453376206
0.0228098961673,0.709807073955
0.0277640806211,0.742765273312
0.0211875881539,0.72347266881
0.0267955608481,0.73231511254
0.0231811005674,0.733118971061
0.0265302970155,0.735530546624
0.0298387096774,0.73231511254
0.0196921216888,0.737942122186
0.0308250239574,0.741961414791
0.0222907660663,0.710610932476
0.0255054267756,0.740353697749
0.0237732306016,0.719453376206
0.0273510772292,0.745176848875
0.0322101458606,0.724276527331
0.0309828592134,0.721864951768
0.0329586227208,0.724276527331
0.0181630735961,0.735530546624
0.0288665747243,0.717041800643
0.0283293033391,0.720257234727
0.0263056555327,0.715434083601
0.0295650044836,0.725884244373
0.0197374810492,0.709807073955
0.0291886468885,0.737942122186
0.0181630735961,0.735530546624
0.0338421536425,0.721864951768
0.0293580510472,0.729099678457
0.0314128172638,0.727491961415
0.0320279087779,0.728295819936
0.0190841283326,0.719453376206
0.0238415249985,0.717041800643
0.0233209576466,0.700964630225
0.030751090266,0.70498392283
0.0238687880435,0.721864951768
0.0231670684229,0.727491961415
0.0204972016567,0.72347266881
0.0190030188193,0.754019292605
0.00887096774194,0.712218649518
0.0305601537443,0.728295819936
0.0135005395506,0.733922829582
0.0316371697515,0.74115755627
0.0299583477758,0.74115755627
0.0271721541755,0.718649517685
0.031288347959,0.745176848875
0.0192579902198,0.711414790997
0.0264412843722,0.74115755627
0.0241801037912,0.730707395498
0.0297950858095,0.73231511254
0.0231670684229,0.742765273312
0.0403225806452,0.72347266881
0.0230368658985,0.725884244373
0.0193422337987,0.725884244373
0.0278809579243,0.721864951768
0.0433706798297,0.729903536977
0.0344634244885,0.743569131833
0.0202457906623,0.734726688103
0.0335332627198,0.713022508039
0.0289115996294,0.745980707395
0.0250389914456,0.729099678457
0.024139725076,0.725884244373
0.0253102497201,0.73231511254
0.0221627517478,0.726688102894
0.0348271336801,0.731511254019
0.0108271948243,0.753215434084
0.0227241980703,0.725884244373
0.0263920454386,0.709807073955
0.0195886416153,0.745176848875
0.0360114734867,0.702572347267
0.0203858462254,0.73231511254
0.0250552199724,0.725884244373
0.0161340717933,0.724276527331
0.0399254638532,0.737942122186
0.0292470771061,0.713826366559
0.0256421178961,0.737942122186
0.0352471023008,0.737138263666
0.0277289213661,0.745980707395
0.026822852209,0.729903536977
0.02323714441,0.734726688103
0.0181227460115,0.730707395498
0.0238858116445,0.72347266881
0.0162495497416,0.730707395498
0.0268076937719,0.739549839228
0.0240722767042,0.728295819936
0.0168633255374,0.726688102894
0.0320152149053,0.722668810289
0.0340337868484,0.711414790997
0.0328598108579,0.720257234727
0.0316474465651,0.733922829582
0.0232511342634,0.717845659164
0.0211990958518,0.744372990354
0.0262840136899,0.748392282958
0.0311190022283,0.718649517685
0.0297431993644,0.741961414791
0.0189301525715,0.74115755627
0.0145385132075,0.747588424437
0.0237218807743,0.737942122186
0.0153861161519,0.717041800643
0.0193212073399,0.752411575563
0.0278313450431,0.745176848875
0.036220811565,0.729099678457
0.0270040897585,0.716237942122
0.0286942691527,0.729903536977
0.0360205023131,0.733922829582
0.0196879929286,0.754823151125
0.0325191050865,0.729099678457
0.0284095402481,0.718649517685
0.0225986391439,0.717845659164
0.0348481356723,0.720257234727
0.0207220405767,0.740353697749
0.0286715948946,0.742765273312
0.024058764339,0.738745980707
0.0317525921332,0.708199356913
0.0282517162187,0.733922829582
0.0289115996294,0.727491961415
0.0327706254408,0.717845659164
0.0137865491914,0.71463022508
0.0196756014496,0.731511254019
0.0306159665689,0.722668810289
0.0346774193548,0.725884244373
0.0389462695861,0.734726688103
0.0252459287782,0.711414790997
0.0219230277727,0.724276527331
0.0237321596283,0.729099678457
0.0237218807743,0.73231511254
0.0284581451429,0.739549839228
0.0313610150893,0.738745980707
0.0190883877073,0.724276527331
0.0191691360065,0.702572347267
0.0270371848617,0.735530546624
0.0288412173262,0.720257234727
0.0208315989566,0.729099678457
0.0331062875405,0.725884244373
0.0275878362631,0.720257234727
0.0191860923441,0.748392282958
0.0189516129032,0.737942122186
0.0301099269397,0.735530546624
0.0267135194759,0.755627009646
0.027052214706,0.727491961415
0.0221627517478,0.733118971061
0.0248041233859,0.728295819936
0.026819821207,0.718649517685
0.0266739280783,0.722668810289
0.0212756547714,0.727491961415
0.0344138520861,0.729099678457
0.0217928534143,0.74115755627
0.034978531397,0.733118971061
0.0225085253822,0.711414790997
0.0148702329956,0.711414790997
0.0217181177573,0.706591639871
0.0281710297979,0.72347266881
0.0268713017444,0.725884244373
0.0296199478584,0.737138263666
0.0251943537932,0.731511254019
0.0283551185351,0.729903536977
0.0265762210537,0.715434083601
0.0372825816555,0.735530546624
0.0302929676951,0.729903536977
0.0255149871283,0.717845659164
0.0221627517478,0.722668810289
0.0280553609464,0.724276527331
0.0272169952108,0.721864951768
0.0345199914933,0.700160771704
0.0203579121957,0.753215434084
0.0344516280053,0.733118971061
